(kicad_sch (version 20211123) (generator eeschema)

  (uuid ac5430eb-eb91-4ae1-aaf6-8af138c77642)

  (paper "USLetter")

  (title_block
    (title "PT2399 Delay")
    (company "Lyle Hanson")
  )

  (lib_symbols
    (symbol "Audio:PT2399" (in_bom yes) (on_board yes)
      (property "Reference" "U" (id 0) (at 0 17.78 0)
        (effects (font (size 1.27 1.27)))
      )
      (property "Value" "PT2399" (id 1) (at 0 -17.78 0)
        (effects (font (size 1.27 1.27)))
      )
      (property "Footprint" "" (id 2) (at 0 -10.16 0)
        (effects (font (size 1.27 1.27)) hide)
      )
      (property "Datasheet" "http://sound.westhost.com/pt2399.pdf" (id 3) (at 0 -10.16 0)
        (effects (font (size 1.27 1.27)) hide)
      )
      (property "ki_keywords" "CMOS ADC DAC 44K Digital processing VCO" (id 4) (at 0 0 0)
        (effects (font (size 1.27 1.27)) hide)
      )
      (property "ki_description" "Echo Processor IC" (id 5) (at 0 0 0)
        (effects (font (size 1.27 1.27)) hide)
      )
      (property "ki_fp_filters" "DIP-16*" (id 6) (at 0 0 0)
        (effects (font (size 1.27 1.27)) hide)
      )
      (symbol "PT2399_0_1"
        (rectangle (start -10.16 15.24) (end 10.16 -15.24)
          (stroke (width 0.254) (type default) (color 0 0 0 0))
          (fill (type background))
        )
      )
      (symbol "PT2399_1_1"
        (pin power_in line (at -12.7 12.7 0) (length 2.54)
          (name "VCC" (effects (font (size 1.27 1.27))))
          (number "1" (effects (font (size 1.27 1.27))))
        )
        (pin input line (at 12.7 -10.16 180) (length 2.54)
          (name "OP1-IN" (effects (font (size 1.27 1.27))))
          (number "10" (effects (font (size 1.27 1.27))))
        )
        (pin input line (at 12.7 -5.08 180) (length 2.54)
          (name "OP2-IN" (effects (font (size 1.27 1.27))))
          (number "11" (effects (font (size 1.27 1.27))))
        )
        (pin output line (at 12.7 -2.54 180) (length 2.54)
          (name "OP2-OUT" (effects (font (size 1.27 1.27))))
          (number "12" (effects (font (size 1.27 1.27))))
        )
        (pin input line (at 12.7 2.54 180) (length 2.54)
          (name "LPF2-IN" (effects (font (size 1.27 1.27))))
          (number "13" (effects (font (size 1.27 1.27))))
        )
        (pin output line (at 12.7 5.08 180) (length 2.54)
          (name "LPF2-OUT" (effects (font (size 1.27 1.27))))
          (number "14" (effects (font (size 1.27 1.27))))
        )
        (pin output line (at 12.7 10.16 180) (length 2.54)
          (name "LPF1-OUT" (effects (font (size 1.27 1.27))))
          (number "15" (effects (font (size 1.27 1.27))))
        )
        (pin input line (at 12.7 12.7 180) (length 2.54)
          (name "LPF1-IN" (effects (font (size 1.27 1.27))))
          (number "16" (effects (font (size 1.27 1.27))))
        )
        (pin passive line (at -12.7 10.16 0) (length 2.54)
          (name "REF" (effects (font (size 1.27 1.27))))
          (number "2" (effects (font (size 1.27 1.27))))
        )
        (pin power_in line (at -12.7 5.08 0) (length 2.54)
          (name "AGND" (effects (font (size 1.27 1.27))))
          (number "3" (effects (font (size 1.27 1.27))))
        )
        (pin power_in line (at -12.7 2.54 0) (length 2.54)
          (name "DGND" (effects (font (size 1.27 1.27))))
          (number "4" (effects (font (size 1.27 1.27))))
        )
        (pin passive line (at -12.7 -2.54 0) (length 2.54)
          (name "CLK_O" (effects (font (size 1.27 1.27))))
          (number "5" (effects (font (size 1.27 1.27))))
        )
        (pin passive line (at -12.7 -5.08 0) (length 2.54)
          (name "VCO" (effects (font (size 1.27 1.27))))
          (number "6" (effects (font (size 1.27 1.27))))
        )
        (pin passive line (at -12.7 -10.16 0) (length 2.54)
          (name "CC1" (effects (font (size 1.27 1.27))))
          (number "7" (effects (font (size 1.27 1.27))))
        )
        (pin passive line (at -12.7 -12.7 0) (length 2.54)
          (name "CC0" (effects (font (size 1.27 1.27))))
          (number "8" (effects (font (size 1.27 1.27))))
        )
        (pin output line (at 12.7 -12.7 180) (length 2.54)
          (name "OP1-OUT" (effects (font (size 1.27 1.27))))
          (number "9" (effects (font (size 1.27 1.27))))
        )
      )
    )
    (symbol "Connector_Generic:Conn_02x08_Odd_Even" (pin_names (offset 1.016) hide) (in_bom yes) (on_board yes)
      (property "Reference" "J" (id 0) (at 1.27 10.16 0)
        (effects (font (size 1.27 1.27)))
      )
      (property "Value" "Conn_02x08_Odd_Even" (id 1) (at 1.27 -12.7 0)
        (effects (font (size 1.27 1.27)))
      )
      (property "Footprint" "" (id 2) (at 0 0 0)
        (effects (font (size 1.27 1.27)) hide)
      )
      (property "Datasheet" "~" (id 3) (at 0 0 0)
        (effects (font (size 1.27 1.27)) hide)
      )
      (property "ki_keywords" "connector" (id 4) (at 0 0 0)
        (effects (font (size 1.27 1.27)) hide)
      )
      (property "ki_description" "Generic connector, double row, 02x08, odd/even pin numbering scheme (row 1 odd numbers, row 2 even numbers), script generated (kicad-library-utils/schlib/autogen/connector/)" (id 5) (at 0 0 0)
        (effects (font (size 1.27 1.27)) hide)
      )
      (property "ki_fp_filters" "Connector*:*_2x??_*" (id 6) (at 0 0 0)
        (effects (font (size 1.27 1.27)) hide)
      )
      (symbol "Conn_02x08_Odd_Even_1_1"
        (rectangle (start -1.27 -10.033) (end 0 -10.287)
          (stroke (width 0.1524) (type default) (color 0 0 0 0))
          (fill (type none))
        )
        (rectangle (start -1.27 -7.493) (end 0 -7.747)
          (stroke (width 0.1524) (type default) (color 0 0 0 0))
          (fill (type none))
        )
        (rectangle (start -1.27 -4.953) (end 0 -5.207)
          (stroke (width 0.1524) (type default) (color 0 0 0 0))
          (fill (type none))
        )
        (rectangle (start -1.27 -2.413) (end 0 -2.667)
          (stroke (width 0.1524) (type default) (color 0 0 0 0))
          (fill (type none))
        )
        (rectangle (start -1.27 0.127) (end 0 -0.127)
          (stroke (width 0.1524) (type default) (color 0 0 0 0))
          (fill (type none))
        )
        (rectangle (start -1.27 2.667) (end 0 2.413)
          (stroke (width 0.1524) (type default) (color 0 0 0 0))
          (fill (type none))
        )
        (rectangle (start -1.27 5.207) (end 0 4.953)
          (stroke (width 0.1524) (type default) (color 0 0 0 0))
          (fill (type none))
        )
        (rectangle (start -1.27 7.747) (end 0 7.493)
          (stroke (width 0.1524) (type default) (color 0 0 0 0))
          (fill (type none))
        )
        (rectangle (start -1.27 8.89) (end 3.81 -11.43)
          (stroke (width 0.254) (type default) (color 0 0 0 0))
          (fill (type background))
        )
        (rectangle (start 3.81 -10.033) (end 2.54 -10.287)
          (stroke (width 0.1524) (type default) (color 0 0 0 0))
          (fill (type none))
        )
        (rectangle (start 3.81 -7.493) (end 2.54 -7.747)
          (stroke (width 0.1524) (type default) (color 0 0 0 0))
          (fill (type none))
        )
        (rectangle (start 3.81 -4.953) (end 2.54 -5.207)
          (stroke (width 0.1524) (type default) (color 0 0 0 0))
          (fill (type none))
        )
        (rectangle (start 3.81 -2.413) (end 2.54 -2.667)
          (stroke (width 0.1524) (type default) (color 0 0 0 0))
          (fill (type none))
        )
        (rectangle (start 3.81 0.127) (end 2.54 -0.127)
          (stroke (width 0.1524) (type default) (color 0 0 0 0))
          (fill (type none))
        )
        (rectangle (start 3.81 2.667) (end 2.54 2.413)
          (stroke (width 0.1524) (type default) (color 0 0 0 0))
          (fill (type none))
        )
        (rectangle (start 3.81 5.207) (end 2.54 4.953)
          (stroke (width 0.1524) (type default) (color 0 0 0 0))
          (fill (type none))
        )
        (rectangle (start 3.81 7.747) (end 2.54 7.493)
          (stroke (width 0.1524) (type default) (color 0 0 0 0))
          (fill (type none))
        )
        (pin passive line (at -5.08 7.62 0) (length 3.81)
          (name "Pin_1" (effects (font (size 1.27 1.27))))
          (number "1" (effects (font (size 1.27 1.27))))
        )
        (pin passive line (at 7.62 -2.54 180) (length 3.81)
          (name "Pin_10" (effects (font (size 1.27 1.27))))
          (number "10" (effects (font (size 1.27 1.27))))
        )
        (pin passive line (at -5.08 -5.08 0) (length 3.81)
          (name "Pin_11" (effects (font (size 1.27 1.27))))
          (number "11" (effects (font (size 1.27 1.27))))
        )
        (pin passive line (at 7.62 -5.08 180) (length 3.81)
          (name "Pin_12" (effects (font (size 1.27 1.27))))
          (number "12" (effects (font (size 1.27 1.27))))
        )
        (pin passive line (at -5.08 -7.62 0) (length 3.81)
          (name "Pin_13" (effects (font (size 1.27 1.27))))
          (number "13" (effects (font (size 1.27 1.27))))
        )
        (pin passive line (at 7.62 -7.62 180) (length 3.81)
          (name "Pin_14" (effects (font (size 1.27 1.27))))
          (number "14" (effects (font (size 1.27 1.27))))
        )
        (pin passive line (at -5.08 -10.16 0) (length 3.81)
          (name "Pin_15" (effects (font (size 1.27 1.27))))
          (number "15" (effects (font (size 1.27 1.27))))
        )
        (pin passive line (at 7.62 -10.16 180) (length 3.81)
          (name "Pin_16" (effects (font (size 1.27 1.27))))
          (number "16" (effects (font (size 1.27 1.27))))
        )
        (pin passive line (at 7.62 7.62 180) (length 3.81)
          (name "Pin_2" (effects (font (size 1.27 1.27))))
          (number "2" (effects (font (size 1.27 1.27))))
        )
        (pin passive line (at -5.08 5.08 0) (length 3.81)
          (name "Pin_3" (effects (font (size 1.27 1.27))))
          (number "3" (effects (font (size 1.27 1.27))))
        )
        (pin passive line (at 7.62 5.08 180) (length 3.81)
          (name "Pin_4" (effects (font (size 1.27 1.27))))
          (number "4" (effects (font (size 1.27 1.27))))
        )
        (pin passive line (at -5.08 2.54 0) (length 3.81)
          (name "Pin_5" (effects (font (size 1.27 1.27))))
          (number "5" (effects (font (size 1.27 1.27))))
        )
        (pin passive line (at 7.62 2.54 180) (length 3.81)
          (name "Pin_6" (effects (font (size 1.27 1.27))))
          (number "6" (effects (font (size 1.27 1.27))))
        )
        (pin passive line (at -5.08 0 0) (length 3.81)
          (name "Pin_7" (effects (font (size 1.27 1.27))))
          (number "7" (effects (font (size 1.27 1.27))))
        )
        (pin passive line (at 7.62 0 180) (length 3.81)
          (name "Pin_8" (effects (font (size 1.27 1.27))))
          (number "8" (effects (font (size 1.27 1.27))))
        )
        (pin passive line (at -5.08 -2.54 0) (length 3.81)
          (name "Pin_9" (effects (font (size 1.27 1.27))))
          (number "9" (effects (font (size 1.27 1.27))))
        )
      )
    )
    (symbol "Device:C_Polarized" (pin_numbers hide) (pin_names (offset 0.254)) (in_bom yes) (on_board yes)
      (property "Reference" "C" (id 0) (at 0.635 2.54 0)
        (effects (font (size 1.27 1.27)) (justify left))
      )
      (property "Value" "C_Polarized" (id 1) (at 0.635 -2.54 0)
        (effects (font (size 1.27 1.27)) (justify left))
      )
      (property "Footprint" "" (id 2) (at 0.9652 -3.81 0)
        (effects (font (size 1.27 1.27)) hide)
      )
      (property "Datasheet" "~" (id 3) (at 0 0 0)
        (effects (font (size 1.27 1.27)) hide)
      )
      (property "ki_keywords" "cap capacitor" (id 4) (at 0 0 0)
        (effects (font (size 1.27 1.27)) hide)
      )
      (property "ki_description" "Polarized capacitor" (id 5) (at 0 0 0)
        (effects (font (size 1.27 1.27)) hide)
      )
      (property "ki_fp_filters" "CP_*" (id 6) (at 0 0 0)
        (effects (font (size 1.27 1.27)) hide)
      )
      (symbol "C_Polarized_0_1"
        (rectangle (start -2.286 0.508) (end 2.286 1.016)
          (stroke (width 0) (type default) (color 0 0 0 0))
          (fill (type none))
        )
        (polyline
          (pts
            (xy -1.778 2.286)
            (xy -0.762 2.286)
          )
          (stroke (width 0) (type default) (color 0 0 0 0))
          (fill (type none))
        )
        (polyline
          (pts
            (xy -1.27 2.794)
            (xy -1.27 1.778)
          )
          (stroke (width 0) (type default) (color 0 0 0 0))
          (fill (type none))
        )
        (rectangle (start 2.286 -0.508) (end -2.286 -1.016)
          (stroke (width 0) (type default) (color 0 0 0 0))
          (fill (type outline))
        )
      )
      (symbol "C_Polarized_1_1"
        (pin passive line (at 0 3.81 270) (length 2.794)
          (name "~" (effects (font (size 1.27 1.27))))
          (number "1" (effects (font (size 1.27 1.27))))
        )
        (pin passive line (at 0 -3.81 90) (length 2.794)
          (name "~" (effects (font (size 1.27 1.27))))
          (number "2" (effects (font (size 1.27 1.27))))
        )
      )
    )
    (symbol "Device:C_Polarized_Small" (pin_numbers hide) (pin_names (offset 0.254) hide) (in_bom yes) (on_board yes)
      (property "Reference" "C" (id 0) (at 0.254 1.778 0)
        (effects (font (size 1.27 1.27)) (justify left))
      )
      (property "Value" "C_Polarized_Small" (id 1) (at 0.254 -2.032 0)
        (effects (font (size 1.27 1.27)) (justify left))
      )
      (property "Footprint" "" (id 2) (at 0 0 0)
        (effects (font (size 1.27 1.27)) hide)
      )
      (property "Datasheet" "~" (id 3) (at 0 0 0)
        (effects (font (size 1.27 1.27)) hide)
      )
      (property "ki_keywords" "cap capacitor" (id 4) (at 0 0 0)
        (effects (font (size 1.27 1.27)) hide)
      )
      (property "ki_description" "Polarized capacitor, small symbol" (id 5) (at 0 0 0)
        (effects (font (size 1.27 1.27)) hide)
      )
      (property "ki_fp_filters" "CP_*" (id 6) (at 0 0 0)
        (effects (font (size 1.27 1.27)) hide)
      )
      (symbol "C_Polarized_Small_0_1"
        (rectangle (start -1.524 -0.3048) (end 1.524 -0.6858)
          (stroke (width 0) (type default) (color 0 0 0 0))
          (fill (type outline))
        )
        (rectangle (start -1.524 0.6858) (end 1.524 0.3048)
          (stroke (width 0) (type default) (color 0 0 0 0))
          (fill (type none))
        )
        (polyline
          (pts
            (xy -1.27 1.524)
            (xy -0.762 1.524)
          )
          (stroke (width 0) (type default) (color 0 0 0 0))
          (fill (type none))
        )
        (polyline
          (pts
            (xy -1.016 1.27)
            (xy -1.016 1.778)
          )
          (stroke (width 0) (type default) (color 0 0 0 0))
          (fill (type none))
        )
      )
      (symbol "C_Polarized_Small_1_1"
        (pin passive line (at 0 2.54 270) (length 1.8542)
          (name "~" (effects (font (size 1.27 1.27))))
          (number "1" (effects (font (size 1.27 1.27))))
        )
        (pin passive line (at 0 -2.54 90) (length 1.8542)
          (name "~" (effects (font (size 1.27 1.27))))
          (number "2" (effects (font (size 1.27 1.27))))
        )
      )
    )
    (symbol "Device:C_Small" (pin_numbers hide) (pin_names (offset 0.254) hide) (in_bom yes) (on_board yes)
      (property "Reference" "C" (id 0) (at 0.254 1.778 0)
        (effects (font (size 1.27 1.27)) (justify left))
      )
      (property "Value" "C_Small" (id 1) (at 0.254 -2.032 0)
        (effects (font (size 1.27 1.27)) (justify left))
      )
      (property "Footprint" "" (id 2) (at 0 0 0)
        (effects (font (size 1.27 1.27)) hide)
      )
      (property "Datasheet" "~" (id 3) (at 0 0 0)
        (effects (font (size 1.27 1.27)) hide)
      )
      (property "ki_keywords" "capacitor cap" (id 4) (at 0 0 0)
        (effects (font (size 1.27 1.27)) hide)
      )
      (property "ki_description" "Unpolarized capacitor, small symbol" (id 5) (at 0 0 0)
        (effects (font (size 1.27 1.27)) hide)
      )
      (property "ki_fp_filters" "C_*" (id 6) (at 0 0 0)
        (effects (font (size 1.27 1.27)) hide)
      )
      (symbol "C_Small_0_1"
        (polyline
          (pts
            (xy -1.524 -0.508)
            (xy 1.524 -0.508)
          )
          (stroke (width 0.3302) (type default) (color 0 0 0 0))
          (fill (type none))
        )
        (polyline
          (pts
            (xy -1.524 0.508)
            (xy 1.524 0.508)
          )
          (stroke (width 0.3048) (type default) (color 0 0 0 0))
          (fill (type none))
        )
      )
      (symbol "C_Small_1_1"
        (pin passive line (at 0 2.54 270) (length 2.032)
          (name "~" (effects (font (size 1.27 1.27))))
          (number "1" (effects (font (size 1.27 1.27))))
        )
        (pin passive line (at 0 -2.54 90) (length 2.032)
          (name "~" (effects (font (size 1.27 1.27))))
          (number "2" (effects (font (size 1.27 1.27))))
        )
      )
    )
    (symbol "Device:D" (pin_numbers hide) (pin_names (offset 1.016) hide) (in_bom yes) (on_board yes)
      (property "Reference" "D" (id 0) (at 0 2.54 0)
        (effects (font (size 1.27 1.27)))
      )
      (property "Value" "D" (id 1) (at 0 -2.54 0)
        (effects (font (size 1.27 1.27)))
      )
      (property "Footprint" "" (id 2) (at 0 0 0)
        (effects (font (size 1.27 1.27)) hide)
      )
      (property "Datasheet" "~" (id 3) (at 0 0 0)
        (effects (font (size 1.27 1.27)) hide)
      )
      (property "ki_keywords" "diode" (id 4) (at 0 0 0)
        (effects (font (size 1.27 1.27)) hide)
      )
      (property "ki_description" "Diode" (id 5) (at 0 0 0)
        (effects (font (size 1.27 1.27)) hide)
      )
      (property "ki_fp_filters" "TO-???* *_Diode_* *SingleDiode* D_*" (id 6) (at 0 0 0)
        (effects (font (size 1.27 1.27)) hide)
      )
      (symbol "D_0_1"
        (polyline
          (pts
            (xy -1.27 1.27)
            (xy -1.27 -1.27)
          )
          (stroke (width 0.254) (type default) (color 0 0 0 0))
          (fill (type none))
        )
        (polyline
          (pts
            (xy 1.27 0)
            (xy -1.27 0)
          )
          (stroke (width 0) (type default) (color 0 0 0 0))
          (fill (type none))
        )
        (polyline
          (pts
            (xy 1.27 1.27)
            (xy 1.27 -1.27)
            (xy -1.27 0)
            (xy 1.27 1.27)
          )
          (stroke (width 0.254) (type default) (color 0 0 0 0))
          (fill (type none))
        )
      )
      (symbol "D_1_1"
        (pin passive line (at -3.81 0 0) (length 2.54)
          (name "K" (effects (font (size 1.27 1.27))))
          (number "1" (effects (font (size 1.27 1.27))))
        )
        (pin passive line (at 3.81 0 180) (length 2.54)
          (name "A" (effects (font (size 1.27 1.27))))
          (number "2" (effects (font (size 1.27 1.27))))
        )
      )
    )
    (symbol "Device:LED" (pin_numbers hide) (pin_names (offset 1.016) hide) (in_bom yes) (on_board yes)
      (property "Reference" "D" (id 0) (at 0 2.54 0)
        (effects (font (size 1.27 1.27)))
      )
      (property "Value" "LED" (id 1) (at 0 -2.54 0)
        (effects (font (size 1.27 1.27)))
      )
      (property "Footprint" "" (id 2) (at 0 0 0)
        (effects (font (size 1.27 1.27)) hide)
      )
      (property "Datasheet" "~" (id 3) (at 0 0 0)
        (effects (font (size 1.27 1.27)) hide)
      )
      (property "ki_keywords" "LED diode" (id 4) (at 0 0 0)
        (effects (font (size 1.27 1.27)) hide)
      )
      (property "ki_description" "Light emitting diode" (id 5) (at 0 0 0)
        (effects (font (size 1.27 1.27)) hide)
      )
      (property "ki_fp_filters" "LED* LED_SMD:* LED_THT:*" (id 6) (at 0 0 0)
        (effects (font (size 1.27 1.27)) hide)
      )
      (symbol "LED_0_1"
        (polyline
          (pts
            (xy -1.27 -1.27)
            (xy -1.27 1.27)
          )
          (stroke (width 0.254) (type default) (color 0 0 0 0))
          (fill (type none))
        )
        (polyline
          (pts
            (xy -1.27 0)
            (xy 1.27 0)
          )
          (stroke (width 0) (type default) (color 0 0 0 0))
          (fill (type none))
        )
        (polyline
          (pts
            (xy 1.27 -1.27)
            (xy 1.27 1.27)
            (xy -1.27 0)
            (xy 1.27 -1.27)
          )
          (stroke (width 0.254) (type default) (color 0 0 0 0))
          (fill (type none))
        )
        (polyline
          (pts
            (xy -3.048 -0.762)
            (xy -4.572 -2.286)
            (xy -3.81 -2.286)
            (xy -4.572 -2.286)
            (xy -4.572 -1.524)
          )
          (stroke (width 0) (type default) (color 0 0 0 0))
          (fill (type none))
        )
        (polyline
          (pts
            (xy -1.778 -0.762)
            (xy -3.302 -2.286)
            (xy -2.54 -2.286)
            (xy -3.302 -2.286)
            (xy -3.302 -1.524)
          )
          (stroke (width 0) (type default) (color 0 0 0 0))
          (fill (type none))
        )
      )
      (symbol "LED_1_1"
        (pin passive line (at -3.81 0 0) (length 2.54)
          (name "K" (effects (font (size 1.27 1.27))))
          (number "1" (effects (font (size 1.27 1.27))))
        )
        (pin passive line (at 3.81 0 180) (length 2.54)
          (name "A" (effects (font (size 1.27 1.27))))
          (number "2" (effects (font (size 1.27 1.27))))
        )
      )
    )
    (symbol "Device:R" (pin_numbers hide) (pin_names (offset 0)) (in_bom yes) (on_board yes)
      (property "Reference" "R" (id 0) (at 2.032 0 90)
        (effects (font (size 1.27 1.27)))
      )
      (property "Value" "R" (id 1) (at 0 0 90)
        (effects (font (size 1.27 1.27)))
      )
      (property "Footprint" "" (id 2) (at -1.778 0 90)
        (effects (font (size 1.27 1.27)) hide)
      )
      (property "Datasheet" "~" (id 3) (at 0 0 0)
        (effects (font (size 1.27 1.27)) hide)
      )
      (property "ki_keywords" "R res resistor" (id 4) (at 0 0 0)
        (effects (font (size 1.27 1.27)) hide)
      )
      (property "ki_description" "Resistor" (id 5) (at 0 0 0)
        (effects (font (size 1.27 1.27)) hide)
      )
      (property "ki_fp_filters" "R_*" (id 6) (at 0 0 0)
        (effects (font (size 1.27 1.27)) hide)
      )
      (symbol "R_0_1"
        (rectangle (start -1.016 -2.54) (end 1.016 2.54)
          (stroke (width 0.254) (type default) (color 0 0 0 0))
          (fill (type none))
        )
      )
      (symbol "R_1_1"
        (pin passive line (at 0 3.81 270) (length 1.27)
          (name "~" (effects (font (size 1.27 1.27))))
          (number "1" (effects (font (size 1.27 1.27))))
        )
        (pin passive line (at 0 -3.81 90) (length 1.27)
          (name "~" (effects (font (size 1.27 1.27))))
          (number "2" (effects (font (size 1.27 1.27))))
        )
      )
    )
    (symbol "power:+12V" (power) (pin_names (offset 0)) (in_bom yes) (on_board yes)
      (property "Reference" "#PWR" (id 0) (at 0 -3.81 0)
        (effects (font (size 1.27 1.27)) hide)
      )
      (property "Value" "+12V" (id 1) (at 0 3.556 0)
        (effects (font (size 1.27 1.27)))
      )
      (property "Footprint" "" (id 2) (at 0 0 0)
        (effects (font (size 1.27 1.27)) hide)
      )
      (property "Datasheet" "" (id 3) (at 0 0 0)
        (effects (font (size 1.27 1.27)) hide)
      )
      (property "ki_keywords" "power-flag" (id 4) (at 0 0 0)
        (effects (font (size 1.27 1.27)) hide)
      )
      (property "ki_description" "Power symbol creates a global label with name \"+12V\"" (id 5) (at 0 0 0)
        (effects (font (size 1.27 1.27)) hide)
      )
      (symbol "+12V_0_1"
        (polyline
          (pts
            (xy -0.762 1.27)
            (xy 0 2.54)
          )
          (stroke (width 0) (type default) (color 0 0 0 0))
          (fill (type none))
        )
        (polyline
          (pts
            (xy 0 0)
            (xy 0 2.54)
          )
          (stroke (width 0) (type default) (color 0 0 0 0))
          (fill (type none))
        )
        (polyline
          (pts
            (xy 0 2.54)
            (xy 0.762 1.27)
          )
          (stroke (width 0) (type default) (color 0 0 0 0))
          (fill (type none))
        )
      )
      (symbol "+12V_1_1"
        (pin power_in line (at 0 0 90) (length 0) hide
          (name "+12V" (effects (font (size 1.27 1.27))))
          (number "1" (effects (font (size 1.27 1.27))))
        )
      )
    )
    (symbol "power:+5V" (power) (pin_names (offset 0)) (in_bom yes) (on_board yes)
      (property "Reference" "#PWR" (id 0) (at 0 -3.81 0)
        (effects (font (size 1.27 1.27)) hide)
      )
      (property "Value" "+5V" (id 1) (at 0 3.556 0)
        (effects (font (size 1.27 1.27)))
      )
      (property "Footprint" "" (id 2) (at 0 0 0)
        (effects (font (size 1.27 1.27)) hide)
      )
      (property "Datasheet" "" (id 3) (at 0 0 0)
        (effects (font (size 1.27 1.27)) hide)
      )
      (property "ki_keywords" "power-flag" (id 4) (at 0 0 0)
        (effects (font (size 1.27 1.27)) hide)
      )
      (property "ki_description" "Power symbol creates a global label with name \"+5V\"" (id 5) (at 0 0 0)
        (effects (font (size 1.27 1.27)) hide)
      )
      (symbol "+5V_0_1"
        (polyline
          (pts
            (xy -0.762 1.27)
            (xy 0 2.54)
          )
          (stroke (width 0) (type default) (color 0 0 0 0))
          (fill (type none))
        )
        (polyline
          (pts
            (xy 0 0)
            (xy 0 2.54)
          )
          (stroke (width 0) (type default) (color 0 0 0 0))
          (fill (type none))
        )
        (polyline
          (pts
            (xy 0 2.54)
            (xy 0.762 1.27)
          )
          (stroke (width 0) (type default) (color 0 0 0 0))
          (fill (type none))
        )
      )
      (symbol "+5V_1_1"
        (pin power_in line (at 0 0 90) (length 0) hide
          (name "+5V" (effects (font (size 1.27 1.27))))
          (number "1" (effects (font (size 1.27 1.27))))
        )
      )
    )
    (symbol "power:-12V" (power) (pin_names (offset 0)) (in_bom yes) (on_board yes)
      (property "Reference" "#PWR" (id 0) (at 0 2.54 0)
        (effects (font (size 1.27 1.27)) hide)
      )
      (property "Value" "-12V" (id 1) (at 0 3.81 0)
        (effects (font (size 1.27 1.27)))
      )
      (property "Footprint" "" (id 2) (at 0 0 0)
        (effects (font (size 1.27 1.27)) hide)
      )
      (property "Datasheet" "" (id 3) (at 0 0 0)
        (effects (font (size 1.27 1.27)) hide)
      )
      (property "ki_keywords" "power-flag" (id 4) (at 0 0 0)
        (effects (font (size 1.27 1.27)) hide)
      )
      (property "ki_description" "Power symbol creates a global label with name \"-12V\"" (id 5) (at 0 0 0)
        (effects (font (size 1.27 1.27)) hide)
      )
      (symbol "-12V_0_0"
        (pin power_in line (at 0 0 90) (length 0) hide
          (name "-12V" (effects (font (size 1.27 1.27))))
          (number "1" (effects (font (size 1.27 1.27))))
        )
      )
      (symbol "-12V_0_1"
        (polyline
          (pts
            (xy 0 0)
            (xy 0 1.27)
            (xy 0.762 1.27)
            (xy 0 2.54)
            (xy -0.762 1.27)
            (xy 0 1.27)
          )
          (stroke (width 0) (type default) (color 0 0 0 0))
          (fill (type outline))
        )
      )
    )
    (symbol "power:GND" (power) (pin_names (offset 0)) (in_bom yes) (on_board yes)
      (property "Reference" "#PWR" (id 0) (at 0 -6.35 0)
        (effects (font (size 1.27 1.27)) hide)
      )
      (property "Value" "GND" (id 1) (at 0 -3.81 0)
        (effects (font (size 1.27 1.27)))
      )
      (property "Footprint" "" (id 2) (at 0 0 0)
        (effects (font (size 1.27 1.27)) hide)
      )
      (property "Datasheet" "" (id 3) (at 0 0 0)
        (effects (font (size 1.27 1.27)) hide)
      )
      (property "ki_keywords" "power-flag" (id 4) (at 0 0 0)
        (effects (font (size 1.27 1.27)) hide)
      )
      (property "ki_description" "Power symbol creates a global label with name \"GND\" , ground" (id 5) (at 0 0 0)
        (effects (font (size 1.27 1.27)) hide)
      )
      (symbol "GND_0_1"
        (polyline
          (pts
            (xy 0 0)
            (xy 0 -1.27)
            (xy 1.27 -1.27)
            (xy 0 -2.54)
            (xy -1.27 -1.27)
            (xy 0 -1.27)
          )
          (stroke (width 0) (type default) (color 0 0 0 0))
          (fill (type none))
        )
      )
      (symbol "GND_1_1"
        (pin power_in line (at 0 0 270) (length 0) hide
          (name "GND" (effects (font (size 1.27 1.27))))
          (number "1" (effects (font (size 1.27 1.27))))
        )
      )
    )
    (symbol "power:PWR_FLAG" (power) (pin_numbers hide) (pin_names (offset 0) hide) (in_bom yes) (on_board yes)
      (property "Reference" "#FLG" (id 0) (at 0 1.905 0)
        (effects (font (size 1.27 1.27)) hide)
      )
      (property "Value" "PWR_FLAG" (id 1) (at 0 3.81 0)
        (effects (font (size 1.27 1.27)))
      )
      (property "Footprint" "" (id 2) (at 0 0 0)
        (effects (font (size 1.27 1.27)) hide)
      )
      (property "Datasheet" "~" (id 3) (at 0 0 0)
        (effects (font (size 1.27 1.27)) hide)
      )
      (property "ki_keywords" "power-flag" (id 4) (at 0 0 0)
        (effects (font (size 1.27 1.27)) hide)
      )
      (property "ki_description" "Special symbol for telling ERC where power comes from" (id 5) (at 0 0 0)
        (effects (font (size 1.27 1.27)) hide)
      )
      (symbol "PWR_FLAG_0_0"
        (pin power_out line (at 0 0 90) (length 0)
          (name "pwr" (effects (font (size 1.27 1.27))))
          (number "1" (effects (font (size 1.27 1.27))))
        )
      )
      (symbol "PWR_FLAG_0_1"
        (polyline
          (pts
            (xy 0 0)
            (xy 0 1.27)
            (xy -1.016 1.905)
            (xy 0 2.54)
            (xy 1.016 1.905)
            (xy 0 1.27)
          )
          (stroke (width 0) (type default) (color 0 0 0 0))
          (fill (type none))
        )
      )
    )
  )

  (junction (at 53.34 55.245) (diameter 0) (color 0 0 0 0)
    (uuid 0ea1be51-bfe4-4d40-8757-9969abd0fa32)
  )
  (junction (at 354.33 149.86) (diameter 0) (color 0 0 0 0)
    (uuid 1789dc28-7ab7-46b0-9540-053b3400f962)
  )
  (junction (at 354.33 152.4) (diameter 0) (color 0 0 0 0)
    (uuid 258ba700-4e11-462d-a441-8d1a5388ee6b)
  )
  (junction (at 40.64 91.44) (diameter 0) (color 0 0 0 0)
    (uuid 294c1410-5a77-48dc-b776-24a8a42831b4)
  )
  (junction (at 367.03 149.86) (diameter 0) (color 0 0 0 0)
    (uuid 3b96ee16-e570-4eb1-be78-bfe6335b0749)
  )
  (junction (at 344.17 162.56) (diameter 0) (color 0 0 0 0)
    (uuid 4794b448-f429-4de9-8216-a1951c1e3e2b)
  )
  (junction (at 350.52 152.4) (diameter 0) (color 0 0 0 0)
    (uuid 51aa69b4-7876-422a-aa40-568d860122c8)
  )
  (junction (at 350.52 154.94) (diameter 0) (color 0 0 0 0)
    (uuid 71bb3fbb-436f-4cb8-ba61-d4e4de07a5e2)
  )
  (junction (at 337.82 157.48) (diameter 0) (color 0 0 0 0)
    (uuid 7372dfc5-87b2-45e6-81c8-b68e83411b4d)
  )
  (junction (at 354.33 154.94) (diameter 0) (color 0 0 0 0)
    (uuid 8716448c-b8a5-4319-a434-fee55f423ddd)
  )
  (junction (at 350.52 147.32) (diameter 0) (color 0 0 0 0)
    (uuid 8f51bbf7-bb5c-4428-ba3b-d54f2061c97d)
  )
  (junction (at 344.17 124.46) (diameter 0) (color 0 0 0 0)
    (uuid 9578fef4-3c66-4156-a372-9c06592d1c3b)
  )
  (junction (at 358.14 149.86) (diameter 0) (color 0 0 0 0)
    (uuid 9bdb70b7-081b-4fca-86c9-e6eb7795b2ca)
  )
  (junction (at 353.06 134.62) (diameter 0) (color 0 0 0 0)
    (uuid ade7f981-7622-4f1a-8cd6-8302cb54bd9f)
  )
  (junction (at 350.52 149.86) (diameter 0) (color 0 0 0 0)
    (uuid d24aebdd-cac5-4466-ad3b-1c158b7d8401)
  )
  (junction (at 344.17 171.45) (diameter 0) (color 0 0 0 0)
    (uuid e4c2affb-08af-4536-8505-72d77b134bfd)
  )
  (junction (at 53.975 64.135) (diameter 0) (color 0 0 0 0)
    (uuid e59ae414-a9dd-4da5-870f-04e0d86da23d)
  )
  (junction (at 62.23 64.135) (diameter 0) (color 0 0 0 0)
    (uuid e70e17ca-30d2-4c46-9d41-e3d6684cabfb)
  )

  (no_connect (at 350.52 142.24) (uuid 0cf3849c-04d4-432e-9bb0-066f6a7b30fc))
  (no_connect (at 350.52 139.7) (uuid 3fd5890b-1e2b-4882-924b-19a68b16a9e7))
  (no_connect (at 337.82 142.24) (uuid 565b9eb6-df57-4dcf-a688-f3c30c9597e8))
  (no_connect (at 350.52 144.78) (uuid 74d413d7-dd39-4649-a714-cb98bb55aec4))
  (no_connect (at 62.865 70.485) (uuid 7584cd31-b1d0-4fad-9014-c6068b93123c))
  (no_connect (at 337.82 139.7) (uuid ade09a4f-3cbe-410e-966f-886d4c6f31ae))
  (no_connect (at 337.82 144.78) (uuid d5f47326-3f1f-4e7b-8bda-e60d462095d4))

  (wire (pts (xy 344.17 171.45) (xy 344.17 172.72))
    (stroke (width 0) (type default) (color 0 0 0 0))
    (uuid 005765d7-29ba-41b1-bb56-7d91973a08bf)
  )
  (wire (pts (xy 337.82 157.48) (xy 350.52 157.48))
    (stroke (width 0) (type default) (color 0 0 0 0))
    (uuid 04c28a0a-c1e8-4742-8327-83279acd993d)
  )
  (wire (pts (xy 53.34 51.435) (xy 53.34 55.245))
    (stroke (width 0) (type default) (color 0 0 0 0))
    (uuid 0a2bfcd7-6acb-4dcd-968c-8059d2008375)
  )
  (wire (pts (xy 367.03 149.86) (xy 367.03 151.13))
    (stroke (width 0) (type default) (color 0 0 0 0))
    (uuid 0ba090bd-5f68-4904-bb86-fcb3fbd3838d)
  )
  (wire (pts (xy 344.17 132.08) (xy 353.06 132.08))
    (stroke (width 0) (type default) (color 0 0 0 0))
    (uuid 149a07bc-0216-4b01-a679-2e0b18c31005)
  )
  (wire (pts (xy 367.03 134.62) (xy 367.03 140.97))
    (stroke (width 0) (type default) (color 0 0 0 0))
    (uuid 1d190db6-a2a3-41cb-834b-95e73754fe57)
  )
  (wire (pts (xy 350.52 152.4) (xy 354.33 152.4))
    (stroke (width 0) (type default) (color 0 0 0 0))
    (uuid 1f58d078-fa07-4b49-a8d9-a26306b6280b)
  )
  (wire (pts (xy 46.355 55.245) (xy 53.34 55.245))
    (stroke (width 0) (type default) (color 0 0 0 0))
    (uuid 22e99b15-66bc-40d3-951d-dd6bc074da17)
  )
  (wire (pts (xy 321.31 148.59) (xy 321.31 149.86))
    (stroke (width 0) (type default) (color 0 0 0 0))
    (uuid 359c69a0-cc83-4ff6-bdb1-04553dc80335)
  )
  (wire (pts (xy 335.28 173.99) (xy 335.28 171.45))
    (stroke (width 0) (type default) (color 0 0 0 0))
    (uuid 3634be0b-a827-4c06-be21-4195f38d5810)
  )
  (wire (pts (xy 358.14 149.86) (xy 367.03 149.86))
    (stroke (width 0) (type default) (color 0 0 0 0))
    (uuid 38faaa65-a57b-4818-845e-60ad14540f91)
  )
  (wire (pts (xy 337.82 154.94) (xy 350.52 154.94))
    (stroke (width 0) (type default) (color 0 0 0 0))
    (uuid 415e1a03-319f-4636-8d11-89c8bfc5c523)
  )
  (wire (pts (xy 62.23 65.405) (xy 62.865 65.405))
    (stroke (width 0) (type default) (color 0 0 0 0))
    (uuid 498add1e-8108-4065-91e4-efee6257c3e9)
  )
  (wire (pts (xy 53.975 57.785) (xy 53.975 58.42))
    (stroke (width 0) (type default) (color 0 0 0 0))
    (uuid 4c266fa0-5674-48e1-9fe0-24252aaaf4de)
  )
  (wire (pts (xy 62.23 62.865) (xy 62.23 64.135))
    (stroke (width 0) (type default) (color 0 0 0 0))
    (uuid 4cb54b24-6097-439c-8e7d-d04fbfc7c55e)
  )
  (wire (pts (xy 344.17 163.83) (xy 344.17 162.56))
    (stroke (width 0) (type default) (color 0 0 0 0))
    (uuid 4e23d30e-832b-4bf9-ba7f-1351d094a940)
  )
  (wire (pts (xy 321.31 157.48) (xy 321.31 158.75))
    (stroke (width 0) (type default) (color 0 0 0 0))
    (uuid 50d5029b-991f-46e2-b106-6ff8ae4aca03)
  )
  (wire (pts (xy 337.82 157.48) (xy 337.82 162.56))
    (stroke (width 0) (type default) (color 0 0 0 0))
    (uuid 52a3f77c-2b03-40fb-bd2c-a51b891cde0f)
  )
  (wire (pts (xy 62.865 57.785) (xy 53.975 57.785))
    (stroke (width 0) (type default) (color 0 0 0 0))
    (uuid 537f1a11-0d1e-4c20-ad30-a42f7f2eb372)
  )
  (wire (pts (xy 337.82 149.86) (xy 350.52 149.86))
    (stroke (width 0) (type default) (color 0 0 0 0))
    (uuid 53bea6dc-3302-4b01-8122-3ac2add1b8cf)
  )
  (wire (pts (xy 337.82 162.56) (xy 344.17 162.56))
    (stroke (width 0) (type default) (color 0 0 0 0))
    (uuid 556c505f-a68c-487c-a11e-3238a6d6380d)
  )
  (wire (pts (xy 59.055 81.28) (xy 55.245 81.28))
    (stroke (width 0) (type default) (color 0 0 0 0))
    (uuid 5ad7ccb8-83e9-42b8-981d-761fefbe2f99)
  )
  (wire (pts (xy 88.265 80.645) (xy 89.535 80.645))
    (stroke (width 0) (type default) (color 0 0 0 0))
    (uuid 5b3e56bc-6b77-4a0c-b1d9-1405a3875e5a)
  )
  (wire (pts (xy 62.865 91.44) (xy 55.245 91.44))
    (stroke (width 0) (type default) (color 0 0 0 0))
    (uuid 5d94c896-7a6c-458d-97e4-06ffe1ab2951)
  )
  (wire (pts (xy 62.865 78.105) (xy 59.055 78.105))
    (stroke (width 0) (type default) (color 0 0 0 0))
    (uuid 697c4863-ce05-4427-9e98-1c8f53085d57)
  )
  (wire (pts (xy 36.83 73.025) (xy 62.865 73.025))
    (stroke (width 0) (type default) (color 0 0 0 0))
    (uuid 6cc36a12-5912-40d3-ad32-0422dc4f336f)
  )
  (wire (pts (xy 53.34 55.245) (xy 62.865 55.245))
    (stroke (width 0) (type default) (color 0 0 0 0))
    (uuid 6f3b4096-b1fb-43ce-836c-5b41ead88441)
  )
  (wire (pts (xy 367.03 158.75) (xy 367.03 162.56))
    (stroke (width 0) (type default) (color 0 0 0 0))
    (uuid 6f6e8973-cab6-471c-8bac-d070b2fd40a1)
  )
  (wire (pts (xy 344.17 162.56) (xy 367.03 162.56))
    (stroke (width 0) (type default) (color 0 0 0 0))
    (uuid 75ca9100-2597-4223-a022-11f095601efb)
  )
  (wire (pts (xy 41.275 55.245) (xy 41.275 57.15))
    (stroke (width 0) (type default) (color 0 0 0 0))
    (uuid 771db792-ea94-4fa8-ad4b-06010a42121c)
  )
  (wire (pts (xy 62.23 64.135) (xy 53.975 64.135))
    (stroke (width 0) (type default) (color 0 0 0 0))
    (uuid 83330b25-1125-42e2-ad1b-729fbd87e2eb)
  )
  (wire (pts (xy 354.33 149.86) (xy 354.33 152.4))
    (stroke (width 0) (type default) (color 0 0 0 0))
    (uuid 8c5eea4f-47d2-4612-8f52-dc76833a9e83)
  )
  (wire (pts (xy 354.33 154.94) (xy 354.33 156.21))
    (stroke (width 0) (type default) (color 0 0 0 0))
    (uuid 949b8d58-1cd5-46c5-8520-e55cbc754937)
  )
  (wire (pts (xy 53.975 64.135) (xy 53.975 63.5))
    (stroke (width 0) (type default) (color 0 0 0 0))
    (uuid 9b4e89c8-438b-49ee-b2c0-7ad9f77046a9)
  )
  (wire (pts (xy 353.06 134.62) (xy 367.03 134.62))
    (stroke (width 0) (type default) (color 0 0 0 0))
    (uuid a523e770-f286-4677-9426-612dd39c3d0d)
  )
  (wire (pts (xy 50.165 81.28) (xy 40.64 81.28))
    (stroke (width 0) (type default) (color 0 0 0 0))
    (uuid a9616dca-b015-4fa7-a97f-5ee7c76737ee)
  )
  (wire (pts (xy 335.28 171.45) (xy 344.17 171.45))
    (stroke (width 0) (type default) (color 0 0 0 0))
    (uuid bca2b5ba-61f5-4dfe-8950-3c817ed0b4bd)
  )
  (wire (pts (xy 353.06 132.08) (xy 353.06 134.62))
    (stroke (width 0) (type default) (color 0 0 0 0))
    (uuid bd33e54f-0431-456d-804a-8da3053d2c74)
  )
  (wire (pts (xy 26.67 73.025) (xy 29.21 73.025))
    (stroke (width 0) (type default) (color 0 0 0 0))
    (uuid bf1d69af-cf12-4b3f-aeeb-b8e724304da4)
  )
  (wire (pts (xy 354.33 149.86) (xy 350.52 149.86))
    (stroke (width 0) (type default) (color 0 0 0 0))
    (uuid c1ff939c-6b6e-48fd-8bff-f0fd63f90bd0)
  )
  (wire (pts (xy 62.865 80.645) (xy 62.865 91.44))
    (stroke (width 0) (type default) (color 0 0 0 0))
    (uuid c6f1e63c-4af8-4a65-81b6-59a3bf4dc978)
  )
  (wire (pts (xy 354.33 149.86) (xy 358.14 149.86))
    (stroke (width 0) (type default) (color 0 0 0 0))
    (uuid c8773f1b-fbb5-40c5-b763-6d230aed5d72)
  )
  (wire (pts (xy 40.64 81.28) (xy 40.64 91.44))
    (stroke (width 0) (type default) (color 0 0 0 0))
    (uuid c963cc20-f48b-488f-93a6-db0603c341f0)
  )
  (wire (pts (xy 40.64 91.44) (xy 50.165 91.44))
    (stroke (width 0) (type default) (color 0 0 0 0))
    (uuid cfea7cba-c34c-4708-98ff-8c484d331484)
  )
  (wire (pts (xy 94.615 80.645) (xy 97.79 80.645))
    (stroke (width 0) (type default) (color 0 0 0 0))
    (uuid d3d71b42-33e2-42c9-b6cd-890fd1375eec)
  )
  (wire (pts (xy 337.82 147.32) (xy 350.52 147.32))
    (stroke (width 0) (type default) (color 0 0 0 0))
    (uuid d9e50bb3-ba4f-49f4-8f5e-e08de09a12dc)
  )
  (wire (pts (xy 337.82 152.4) (xy 350.52 152.4))
    (stroke (width 0) (type default) (color 0 0 0 0))
    (uuid dcd74411-b7da-45ab-9b01-a482dc538193)
  )
  (wire (pts (xy 53.975 64.135) (xy 53.975 64.77))
    (stroke (width 0) (type default) (color 0 0 0 0))
    (uuid e0a91ccf-2015-4e50-a29b-6f9481f7460a)
  )
  (wire (pts (xy 335.28 124.46) (xy 344.17 124.46))
    (stroke (width 0) (type default) (color 0 0 0 0))
    (uuid e45add93-8fce-4150-8cce-784220e59453)
  )
  (wire (pts (xy 62.865 62.865) (xy 62.23 62.865))
    (stroke (width 0) (type default) (color 0 0 0 0))
    (uuid ec96af80-07fe-4efc-8af8-733d31f24a17)
  )
  (wire (pts (xy 353.06 134.62) (xy 353.06 147.32))
    (stroke (width 0) (type default) (color 0 0 0 0))
    (uuid ed8bdaa7-e87a-476f-a34f-0342903fc089)
  )
  (wire (pts (xy 88.265 78.105) (xy 97.79 78.105))
    (stroke (width 0) (type default) (color 0 0 0 0))
    (uuid ee6513ba-bd39-42a0-9902-18eed689a775)
  )
  (wire (pts (xy 354.33 152.4) (xy 354.33 154.94))
    (stroke (width 0) (type default) (color 0 0 0 0))
    (uuid f05c8c97-6b58-4876-b448-386c5686a8a4)
  )
  (wire (pts (xy 350.52 147.32) (xy 353.06 147.32))
    (stroke (width 0) (type default) (color 0 0 0 0))
    (uuid f5f6e975-54d6-49fc-9870-3f37b682c3f2)
  )
  (wire (pts (xy 321.31 140.335) (xy 321.31 140.97))
    (stroke (width 0) (type default) (color 0 0 0 0))
    (uuid f9135800-400e-4c0f-b8ef-39cd4c7532ee)
  )
  (wire (pts (xy 350.52 154.94) (xy 354.33 154.94))
    (stroke (width 0) (type default) (color 0 0 0 0))
    (uuid f974c8a7-744a-484f-ad2f-149767d94f35)
  )
  (wire (pts (xy 97.79 80.645) (xy 97.79 78.105))
    (stroke (width 0) (type default) (color 0 0 0 0))
    (uuid fc18d937-1163-48be-8433-fc915bde9cbf)
  )
  (wire (pts (xy 59.055 78.105) (xy 59.055 81.28))
    (stroke (width 0) (type default) (color 0 0 0 0))
    (uuid fd155e68-65b7-41f5-8a2e-f3df5e6fe654)
  )
  (wire (pts (xy 62.23 64.135) (xy 62.23 65.405))
    (stroke (width 0) (type default) (color 0 0 0 0))
    (uuid fd42c5e4-0ebd-43b2-a4d8-d5c6bd0c5b01)
  )
  (wire (pts (xy 367.03 148.59) (xy 367.03 149.86))
    (stroke (width 0) (type default) (color 0 0 0 0))
    (uuid fe398adf-0801-4345-8d99-4b959a628f7b)
  )

  (text "Power Indicator" (at 314.325 133.985 0)
    (effects (font (size 1.27 1.27)) (justify left bottom))
    (uuid 0f692535-9d2f-4266-b058-094565dbb913)
  )

  (global_label "Delay_Time" (shape input) (at 26.67 73.025 180) (fields_autoplaced)
    (effects (font (size 1.27 1.27)) (justify right))
    (uuid 35fb811a-f48e-465d-845f-869a411cd3c0)
    (property "Intersheet References" "${INTERSHEET_REFS}" (id 0) (at 13.7945 72.9456 0)
      (effects (font (size 1.27 1.27)) (justify right) hide)
    )
  )

  (symbol (lib_id "power:GND") (at 41.275 57.15 0) (unit 1)
    (in_bom yes) (on_board yes) (fields_autoplaced)
    (uuid 0c1daaad-56ac-4ded-b8ac-b53ba0e01dae)
    (property "Reference" "#PWR?" (id 0) (at 41.275 63.5 0)
      (effects (font (size 1.27 1.27)) hide)
    )
    (property "Value" "GND" (id 1) (at 41.275 61.5934 0))
    (property "Footprint" "" (id 2) (at 41.275 57.15 0)
      (effects (font (size 1.27 1.27)) hide)
    )
    (property "Datasheet" "" (id 3) (at 41.275 57.15 0)
      (effects (font (size 1.27 1.27)) hide)
    )
    (pin "1" (uuid d4b90e69-5c51-468a-a3d4-5944c9e57572))
  )

  (symbol (lib_id "Device:R") (at 321.31 153.67 0) (unit 1)
    (in_bom yes) (on_board yes) (fields_autoplaced)
    (uuid 108323e4-8825-4d8f-a060-d03d5dcc7754)
    (property "Reference" "R?" (id 0) (at 323.088 152.8353 0)
      (effects (font (size 1.27 1.27)) (justify left))
    )
    (property "Value" "560" (id 1) (at 323.088 155.3722 0)
      (effects (font (size 1.27 1.27)) (justify left))
    )
    (property "Footprint" "Resistor_THT:R_Axial_DIN0204_L3.6mm_D1.6mm_P2.54mm_Vertical" (id 2) (at 319.532 153.67 90)
      (effects (font (size 1.27 1.27)) hide)
    )
    (property "Datasheet" "https://www.mouser.com/datasheet/2/427/mbxsma-1286643.pdf" (id 3) (at 321.31 153.67 0)
      (effects (font (size 1.27 1.27)) hide)
    )
    (property "Manufacturers Part Number" "MBA02040C5600FCT00" (id 4) (at 321.31 153.67 0)
      (effects (font (size 1.27 1.27)) hide)
    )
    (pin "1" (uuid 65a490d6-a342-48dc-8827-79fcf50bc9f9))
    (pin "2" (uuid 5234387a-9fa5-4a20-8b98-270fb5856405))
  )

  (symbol (lib_id "power:PWR_FLAG") (at 335.28 124.46 0) (unit 1)
    (in_bom yes) (on_board yes) (fields_autoplaced)
    (uuid 12fefc7a-f21a-476e-82ac-997696b2b60a)
    (property "Reference" "#FLG?" (id 0) (at 335.28 122.555 0)
      (effects (font (size 1.27 1.27)) hide)
    )
    (property "Value" "PWR_FLAG" (id 1) (at 335.28 120.8842 0))
    (property "Footprint" "" (id 2) (at 335.28 124.46 0)
      (effects (font (size 1.27 1.27)) hide)
    )
    (property "Datasheet" "~" (id 3) (at 335.28 124.46 0)
      (effects (font (size 1.27 1.27)) hide)
    )
    (pin "1" (uuid 4f528367-4751-43d7-ba58-d03bc3b75f4a))
  )

  (symbol (lib_id "Device:D") (at 344.17 128.27 270) (unit 1)
    (in_bom yes) (on_board yes)
    (uuid 16bf06c4-62ab-41c6-9635-cd63d644f177)
    (property "Reference" "D?" (id 0) (at 346.202 127.4353 90)
      (effects (font (size 1.27 1.27)) (justify left))
    )
    (property "Value" "1N5817" (id 1) (at 346.202 129.9722 90)
      (effects (font (size 1.27 1.27)) (justify left))
    )
    (property "Footprint" "Diode_THT:D_DO-35_SOD27_P7.62mm_Horizontal" (id 2) (at 344.17 128.27 0)
      (effects (font (size 1.27 1.27)) hide)
    )
    (property "Datasheet" "https://www.mouser.com/datasheet/2/427/1n5817-1768225.pdf" (id 3) (at 344.17 128.27 0)
      (effects (font (size 1.27 1.27)) hide)
    )
    (property "Manufacturers Part Number" "1N5817-E3/73" (id 4) (at 344.17 128.27 0)
      (effects (font (size 1.27 1.27)) hide)
    )
    (pin "1" (uuid 9c83d354-dba6-49c6-b984-a62c6d6063f8))
    (pin "2" (uuid ba4933de-91bb-448e-b5fe-713ec38f5688))
  )

  (symbol (lib_id "Device:LED") (at 321.31 144.78 90) (unit 1)
    (in_bom yes) (on_board yes) (fields_autoplaced)
    (uuid 203f4ce3-c884-42de-9cdb-aced29342910)
    (property "Reference" "D?" (id 0) (at 324.231 145.5328 90)
      (effects (font (size 1.27 1.27)) (justify right))
    )
    (property "Value" "LED" (id 1) (at 324.231 148.0697 90)
      (effects (font (size 1.27 1.27)) (justify right))
    )
    (property "Footprint" "" (id 2) (at 321.31 144.78 0)
      (effects (font (size 1.27 1.27)) hide)
    )
    (property "Datasheet" "~" (id 3) (at 321.31 144.78 0)
      (effects (font (size 1.27 1.27)) hide)
    )
    (pin "1" (uuid 360e8a35-d319-4688-98f9-3f60cc165def))
    (pin "2" (uuid 6ba09acc-98f1-48e4-bbc2-2b3e8d01ace7))
  )

  (symbol (lib_id "power:-12V") (at 344.17 172.72 180) (unit 1)
    (in_bom yes) (on_board yes) (fields_autoplaced)
    (uuid 24178e12-eca6-4a0b-b570-7be4ad23cd5e)
    (property "Reference" "#PWR?" (id 0) (at 344.17 175.26 0)
      (effects (font (size 1.27 1.27)) hide)
    )
    (property "Value" "-12V" (id 1) (at 344.17 177.1634 0))
    (property "Footprint" "" (id 2) (at 344.17 172.72 0)
      (effects (font (size 1.27 1.27)) hide)
    )
    (property "Datasheet" "" (id 3) (at 344.17 172.72 0)
      (effects (font (size 1.27 1.27)) hide)
    )
    (pin "1" (uuid 6d060ddf-b58f-42f1-9724-5b86942ad212))
  )

  (symbol (lib_id "power:GND") (at 53.975 64.77 0) (unit 1)
    (in_bom yes) (on_board yes) (fields_autoplaced)
    (uuid 2e7e5b42-57d2-4d83-9767-17b6692cc787)
    (property "Reference" "#PWR?" (id 0) (at 53.975 71.12 0)
      (effects (font (size 1.27 1.27)) hide)
    )
    (property "Value" "GND" (id 1) (at 53.975 69.2134 0))
    (property "Footprint" "" (id 2) (at 53.975 64.77 0)
      (effects (font (size 1.27 1.27)) hide)
    )
    (property "Datasheet" "" (id 3) (at 53.975 64.77 0)
      (effects (font (size 1.27 1.27)) hide)
    )
    (pin "1" (uuid 493ee9a3-9d68-4633-a6d3-b7b30d569205))
  )

  (symbol (lib_id "power:+5V") (at 53.34 51.435 0) (unit 1)
    (in_bom yes) (on_board yes) (fields_autoplaced)
    (uuid 2f29cb61-2f08-470a-92b6-e224c02c311a)
    (property "Reference" "#PWR?" (id 0) (at 53.34 55.245 0)
      (effects (font (size 1.27 1.27)) hide)
    )
    (property "Value" "+5V" (id 1) (at 53.34 47.8592 0))
    (property "Footprint" "" (id 2) (at 53.34 51.435 0)
      (effects (font (size 1.27 1.27)) hide)
    )
    (property "Datasheet" "" (id 3) (at 53.34 51.435 0)
      (effects (font (size 1.27 1.27)) hide)
    )
    (pin "1" (uuid ed306e93-dba5-4e0c-a620-aa2d4294218e))
  )

  (symbol (lib_id "Connector_Generic:Conn_02x08_Odd_Even") (at 345.44 149.86 180) (unit 1)
    (in_bom yes) (on_board yes) (fields_autoplaced)
    (uuid 3ea021e0-9870-4903-b319-7801e919c8e3)
    (property "Reference" "J?" (id 0) (at 344.17 134.7302 0))
    (property "Value" "Power" (id 1) (at 344.17 137.2671 0))
    (property "Footprint" "kicad_footprints:Eurorack_16_pin_power" (id 2) (at 345.44 149.86 0)
      (effects (font (size 1.27 1.27)) hide)
    )
    (property "Datasheet" "https://www.mouser.com/datasheet/2/1/c315a08499b0d0804b11b538e0036d96398e6fbf-2951615.pdf" (id 3) (at 345.44 149.86 0)
      (effects (font (size 1.27 1.27)) hide)
    )
    (property "Manufacturers Part Number" "30316-6002HB" (id 4) (at 345.44 149.86 0)
      (effects (font (size 1.27 1.27)) hide)
    )
    (pin "1" (uuid f4e1e4fb-7f66-4604-a09c-9384910fae87))
    (pin "10" (uuid 24b5d583-02af-45d2-a7ee-7fc4d59bc7f9))
    (pin "11" (uuid a2098e65-fd1c-4100-bd35-de662920bc08))
    (pin "12" (uuid 00db86bc-f9e4-4d84-bfc5-73b9dc4a0655))
    (pin "13" (uuid 529c7e70-059a-4da5-a46e-139034908041))
    (pin "14" (uuid 50dc39ec-7111-4654-8c02-1e6ea589c0dd))
    (pin "15" (uuid f095187c-644d-4e87-a2ac-1c482c3bfe3b))
    (pin "16" (uuid 010f36cf-53f2-4fcf-a3f6-7c19c8533afb))
    (pin "2" (uuid 2afb2189-d1c3-43f6-b57d-38b0171f2e83))
    (pin "3" (uuid 793e59a1-7194-42fc-94e3-9e220aeb143f))
    (pin "4" (uuid 77934c41-6260-4b6f-8989-b9a9dee0dfd8))
    (pin "5" (uuid 62d27671-5a7d-4bda-8a62-97ed70acec7c))
    (pin "6" (uuid a2ad0cd8-ceae-4c1f-9e87-95bf423ecdfb))
    (pin "7" (uuid ca85ce52-b33c-436d-96d9-2db506ce1b4f))
    (pin "8" (uuid cf5feb36-4d14-40ee-b6f7-9d0afd0b72d3))
    (pin "9" (uuid 7d779fd3-a36f-40f4-ad8f-15580c8b4144))
  )

  (symbol (lib_id "power:GND") (at 321.31 158.75 0) (unit 1)
    (in_bom yes) (on_board yes) (fields_autoplaced)
    (uuid 3ec580b6-a3c6-4221-b954-f1e69a5a3d2e)
    (property "Reference" "#PWR?" (id 0) (at 321.31 165.1 0)
      (effects (font (size 1.27 1.27)) hide)
    )
    (property "Value" "GND" (id 1) (at 321.31 163.1934 0))
    (property "Footprint" "" (id 2) (at 321.31 158.75 0)
      (effects (font (size 1.27 1.27)) hide)
    )
    (property "Datasheet" "" (id 3) (at 321.31 158.75 0)
      (effects (font (size 1.27 1.27)) hide)
    )
    (pin "1" (uuid da0ebc2e-134f-4584-b598-cade9bd3f78c))
  )

  (symbol (lib_id "Device:C_Small") (at 52.705 81.28 90) (unit 1)
    (in_bom yes) (on_board yes) (fields_autoplaced)
    (uuid 411c2d8d-d70e-4860-bc81-14efdaa58545)
    (property "Reference" "C?" (id 0) (at 52.7113 76.0181 90))
    (property "Value" "100nF" (id 1) (at 52.7113 78.555 90))
    (property "Footprint" "" (id 2) (at 52.705 81.28 0)
      (effects (font (size 1.27 1.27)) hide)
    )
    (property "Datasheet" "~" (id 3) (at 52.705 81.28 0)
      (effects (font (size 1.27 1.27)) hide)
    )
    (pin "1" (uuid b6f3f856-0eb6-4153-800b-354dde70065b))
    (pin "2" (uuid a60c0a56-9048-4f82-bff8-41d05afefda0))
  )

  (symbol (lib_id "power:GND") (at 40.64 91.44 0) (unit 1)
    (in_bom yes) (on_board yes) (fields_autoplaced)
    (uuid 4a33416e-c87e-4f29-a247-2ef2dbdeb72d)
    (property "Reference" "#PWR?" (id 0) (at 40.64 97.79 0)
      (effects (font (size 1.27 1.27)) hide)
    )
    (property "Value" "GND" (id 1) (at 40.64 95.8834 0))
    (property "Footprint" "" (id 2) (at 40.64 91.44 0)
      (effects (font (size 1.27 1.27)) hide)
    )
    (property "Datasheet" "" (id 3) (at 40.64 91.44 0)
      (effects (font (size 1.27 1.27)) hide)
    )
    (pin "1" (uuid cfd6261a-3ef8-43bb-8554-5df50714aca2))
  )

  (symbol (lib_id "Audio:PT2399") (at 75.565 67.945 0) (unit 1)
    (in_bom yes) (on_board yes) (fields_autoplaced)
    (uuid 5210ff92-523d-4e91-a1a3-aa3a7fae1c73)
    (property "Reference" "U?" (id 0) (at 75.565 49.0052 0))
    (property "Value" "PT2399" (id 1) (at 75.565 51.5421 0))
    (property "Footprint" "" (id 2) (at 75.565 78.105 0)
      (effects (font (size 1.27 1.27)) hide)
    )
    (property "Datasheet" "http://sound.westhost.com/pt2399.pdf" (id 3) (at 75.565 78.105 0)
      (effects (font (size 1.27 1.27)) hide)
    )
    (pin "1" (uuid a3561b4f-b1b5-4232-8ca6-283daf2f6389))
    (pin "10" (uuid 5543ed36-843f-4a7f-8898-b4e21acd873c))
    (pin "11" (uuid 699b4ebe-5492-4ecf-874d-57e38124d0c2))
    (pin "12" (uuid 9f7dbb56-09a7-4af0-adcf-371fcdcdded1))
    (pin "13" (uuid efffab39-9823-4234-9416-4012eb15172a))
    (pin "14" (uuid 021f5b4c-cc05-4b80-941a-068be1d707c5))
    (pin "15" (uuid e233737a-61ed-4c6f-8f57-f22c68f12c89))
    (pin "16" (uuid 4d1a60fa-954a-4c04-8601-29fb30d50246))
    (pin "2" (uuid 8aa502b5-0833-4212-ad2f-9f4ea940c176))
    (pin "3" (uuid 15a49a22-8cdf-458e-9feb-84f191f4e892))
    (pin "4" (uuid f449d36e-a4ee-42ce-8c8b-709b8992c106))
    (pin "5" (uuid 41f3eafa-256e-4861-b23d-850907c6b54c))
    (pin "6" (uuid d584b62b-1c16-4881-adf8-51ed28a288c4))
    (pin "7" (uuid 7e75e842-50d3-48f3-a19c-8ca466bc7bb9))
    (pin "8" (uuid 4b3ff09b-a187-4325-aa93-33774d5c1d46))
    (pin "9" (uuid 7599a7fc-65f3-4574-b4f4-92f31d0b3857))
  )

  (symbol (lib_id "Device:C_Polarized") (at 367.03 154.94 0) (unit 1)
    (in_bom yes) (on_board yes)
    (uuid 6297a34e-2142-47b5-96e6-3b430d175643)
    (property "Reference" "C?" (id 0) (at 369.951 153.2163 0)
      (effects (font (size 1.27 1.27)) (justify left))
    )
    (property "Value" "10u 25V" (id 1) (at 369.951 155.7532 0)
      (effects (font (size 1.27 1.27)) (justify left))
    )
    (property "Footprint" "Capacitor_THT:CP_Radial_D5.0mm_P2.50mm" (id 2) (at 367.9952 158.75 0)
      (effects (font (size 1.27 1.27)) hide)
    )
    (property "Datasheet" "https://www.mouser.com/datasheet/2/293/e_upj-1219458.pdf" (id 3) (at 367.03 154.94 0)
      (effects (font (size 1.27 1.27)) hide)
    )
    (property "Manufacturers Part Number" "UPJ1J100MDD1TA" (id 4) (at 367.03 154.94 0)
      (effects (font (size 1.27 1.27)) hide)
    )
    (pin "1" (uuid f70f77d3-c2e8-4f77-b075-2101a34e6b39))
    (pin "2" (uuid 5484ed3a-3521-4e69-8f67-b4f2b7dd8e2a))
  )

  (symbol (lib_id "power:+12V") (at 344.17 124.46 0) (unit 1)
    (in_bom yes) (on_board yes)
    (uuid 63d63a1c-acef-4b80-af76-d96defabe790)
    (property "Reference" "#PWR?" (id 0) (at 344.17 128.27 0)
      (effects (font (size 1.27 1.27)) hide)
    )
    (property "Value" "+12V" (id 1) (at 344.17 120.8842 0))
    (property "Footprint" "" (id 2) (at 344.17 124.46 0)
      (effects (font (size 1.27 1.27)) hide)
    )
    (property "Datasheet" "" (id 3) (at 344.17 124.46 0)
      (effects (font (size 1.27 1.27)) hide)
    )
    (pin "1" (uuid 4f3095c1-18e8-43f7-8f8e-82551cf81d80))
  )

  (symbol (lib_id "Device:C_Small") (at 52.705 91.44 90) (unit 1)
    (in_bom yes) (on_board yes) (fields_autoplaced)
    (uuid 776a83e0-3661-4197-befd-ad7c25053865)
    (property "Reference" "C?" (id 0) (at 52.7113 86.1781 90))
    (property "Value" "100nF" (id 1) (at 52.7113 88.715 90))
    (property "Footprint" "" (id 2) (at 52.705 91.44 0)
      (effects (font (size 1.27 1.27)) hide)
    )
    (property "Datasheet" "~" (id 3) (at 52.705 91.44 0)
      (effects (font (size 1.27 1.27)) hide)
    )
    (pin "1" (uuid 43d4b2af-551e-4d82-9071-eb6eb4ff0972))
    (pin "2" (uuid bb87fea9-4917-47f1-84bb-47dcdd4473d4))
  )

  (symbol (lib_id "Device:C_Polarized_Small") (at 53.975 60.96 0) (unit 1)
    (in_bom yes) (on_board yes)
    (uuid 80f039e6-e4ae-469e-a2ab-8cc3297f3633)
    (property "Reference" "C?" (id 0) (at 56.134 59.5792 0)
      (effects (font (size 1.27 1.27)) (justify left))
    )
    (property "Value" "47uF" (id 1) (at 56.134 62.1161 0)
      (effects (font (size 1.27 1.27)) (justify left))
    )
    (property "Footprint" "" (id 2) (at 53.975 60.96 0)
      (effects (font (size 1.27 1.27)) hide)
    )
    (property "Datasheet" "~" (id 3) (at 53.975 60.96 0)
      (effects (font (size 1.27 1.27)) hide)
    )
    (pin "1" (uuid 5501620c-5674-40da-ae8e-0861a6dde21a))
    (pin "2" (uuid 35d2d00b-7f2e-495c-83a1-87b8b0919b36))
  )

  (symbol (lib_id "Device:C_Small") (at 43.815 55.245 90) (unit 1)
    (in_bom yes) (on_board yes) (fields_autoplaced)
    (uuid 896e6cdd-dc70-4262-993b-717b1181e712)
    (property "Reference" "C?" (id 0) (at 43.8213 49.9831 90))
    (property "Value" "100nF" (id 1) (at 43.8213 52.52 90))
    (property "Footprint" "" (id 2) (at 43.815 55.245 0)
      (effects (font (size 1.27 1.27)) hide)
    )
    (property "Datasheet" "~" (id 3) (at 43.815 55.245 0)
      (effects (font (size 1.27 1.27)) hide)
    )
    (pin "1" (uuid 0bcfc864-cb52-4495-97d9-c67cf473b6fa))
    (pin "2" (uuid 6e65733a-9fe3-4769-a207-edbd2421fe1e))
  )

  (symbol (lib_id "Device:C_Small") (at 92.075 80.645 270) (unit 1)
    (in_bom yes) (on_board yes)
    (uuid 8d12255b-de01-4911-a09d-3426f53e2547)
    (property "Reference" "C?" (id 0) (at 92.075 84.455 90))
    (property "Value" "100nF" (id 1) (at 92.075 86.9919 90))
    (property "Footprint" "" (id 2) (at 92.075 80.645 0)
      (effects (font (size 1.27 1.27)) hide)
    )
    (property "Datasheet" "~" (id 3) (at 92.075 80.645 0)
      (effects (font (size 1.27 1.27)) hide)
    )
    (pin "1" (uuid ea67b9f8-b85a-4497-97f5-db6f34a54579))
    (pin "2" (uuid 2142dd32-8986-4c69-9a67-1e605e566729))
  )

  (symbol (lib_id "power:+12V") (at 321.31 140.335 0) (unit 1)
    (in_bom yes) (on_board yes)
    (uuid bd631d25-c4d3-4dfd-857d-5758a7c83797)
    (property "Reference" "#PWR?" (id 0) (at 321.31 144.145 0)
      (effects (font (size 1.27 1.27)) hide)
    )
    (property "Value" "+12V" (id 1) (at 321.31 136.7592 0))
    (property "Footprint" "" (id 2) (at 321.31 140.335 0)
      (effects (font (size 1.27 1.27)) hide)
    )
    (property "Datasheet" "" (id 3) (at 321.31 140.335 0)
      (effects (font (size 1.27 1.27)) hide)
    )
    (pin "1" (uuid 16843163-67b2-457c-9751-33f036d886ca))
  )

  (symbol (lib_id "Device:R") (at 33.02 73.025 90) (unit 1)
    (in_bom yes) (on_board yes) (fields_autoplaced)
    (uuid c844f398-3dfb-4064-bad4-4e0230522b8d)
    (property "Reference" "R?" (id 0) (at 33.02 68.3092 90))
    (property "Value" "R" (id 1) (at 33.02 70.8461 90))
    (property "Footprint" "" (id 2) (at 33.02 74.803 90)
      (effects (font (size 1.27 1.27)) hide)
    )
    (property "Datasheet" "~" (id 3) (at 33.02 73.025 0)
      (effects (font (size 1.27 1.27)) hide)
    )
    (pin "1" (uuid 29ffba88-33e9-4d9a-980a-0cacb2be3b5a))
    (pin "2" (uuid fa3c853d-e156-468b-9173-0e5881d7c198))
  )

  (symbol (lib_id "power:PWR_FLAG") (at 335.28 173.99 180) (unit 1)
    (in_bom yes) (on_board yes) (fields_autoplaced)
    (uuid ccc0be31-3706-443d-9320-09a8ae19d4ec)
    (property "Reference" "#FLG?" (id 0) (at 335.28 175.895 0)
      (effects (font (size 1.27 1.27)) hide)
    )
    (property "Value" "PWR_FLAG" (id 1) (at 335.28 178.4334 0))
    (property "Footprint" "" (id 2) (at 335.28 173.99 0)
      (effects (font (size 1.27 1.27)) hide)
    )
    (property "Datasheet" "~" (id 3) (at 335.28 173.99 0)
      (effects (font (size 1.27 1.27)) hide)
    )
    (pin "1" (uuid 040a516a-ae31-491d-a51f-350ac5e54b14))
  )

  (symbol (lib_id "power:PWR_FLAG") (at 358.14 149.86 0) (unit 1)
    (in_bom yes) (on_board yes)
    (uuid f159cb97-ff0f-4658-a9cf-0d57e4f5dd3a)
    (property "Reference" "#FLG?" (id 0) (at 358.14 147.955 0)
      (effects (font (size 1.27 1.27)) hide)
    )
    (property "Value" "PWR_FLAG" (id 1) (at 358.14 146.2842 0))
    (property "Footprint" "" (id 2) (at 358.14 149.86 0)
      (effects (font (size 1.27 1.27)) hide)
    )
    (property "Datasheet" "~" (id 3) (at 358.14 149.86 0)
      (effects (font (size 1.27 1.27)) hide)
    )
    (pin "1" (uuid f42bdc5e-b5f2-4e5a-b292-ad3dfa492193))
  )

  (symbol (lib_id "Device:D") (at 344.17 167.64 90) (mirror x) (unit 1)
    (in_bom yes) (on_board yes)
    (uuid f5d05359-e255-40fa-90f7-06d601cece59)
    (property "Reference" "D?" (id 0) (at 346.202 168.4747 90)
      (effects (font (size 1.27 1.27)) (justify right))
    )
    (property "Value" "1N5817" (id 1) (at 346.202 165.9378 90)
      (effects (font (size 1.27 1.27)) (justify right))
    )
    (property "Footprint" "Diode_THT:D_DO-35_SOD27_P7.62mm_Horizontal" (id 2) (at 344.17 167.64 0)
      (effects (font (size 1.27 1.27)) hide)
    )
    (property "Datasheet" "https://www.mouser.com/datasheet/2/427/1n5817-1768225.pdf" (id 3) (at 344.17 167.64 0)
      (effects (font (size 1.27 1.27)) hide)
    )
    (property "Manufacturers Part Number" "1N5817-E3/73" (id 4) (at 344.17 167.64 0)
      (effects (font (size 1.27 1.27)) hide)
    )
    (pin "1" (uuid e07d98d3-b1da-40bb-9023-454a1986f8f7))
    (pin "2" (uuid 69a678ab-15fe-46a8-bed7-1da8e6bffac2))
  )

  (symbol (lib_id "Device:C_Polarized") (at 367.03 144.78 0) (unit 1)
    (in_bom yes) (on_board yes) (fields_autoplaced)
    (uuid fad2bced-3f32-4e67-8585-be082cd4b1ff)
    (property "Reference" "C?" (id 0) (at 369.951 143.0563 0)
      (effects (font (size 1.27 1.27)) (justify left))
    )
    (property "Value" "10u 25V" (id 1) (at 369.951 145.5932 0)
      (effects (font (size 1.27 1.27)) (justify left))
    )
    (property "Footprint" "Capacitor_THT:CP_Radial_D5.0mm_P2.50mm" (id 2) (at 367.9952 148.59 0)
      (effects (font (size 1.27 1.27)) hide)
    )
    (property "Datasheet" "https://www.mouser.com/datasheet/2/293/e_upj-1219458.pdf" (id 3) (at 367.03 144.78 0)
      (effects (font (size 1.27 1.27)) hide)
    )
    (property "Manufacturers Part Number" "UPJ1J100MDD1TA" (id 4) (at 367.03 144.78 0)
      (effects (font (size 1.27 1.27)) hide)
    )
    (pin "1" (uuid 72871535-0c95-4640-9847-5ff75b203893))
    (pin "2" (uuid 7354d9be-384f-457a-85bc-d07c45fb327c))
  )

  (symbol (lib_id "power:GND") (at 354.33 156.21 0) (unit 1)
    (in_bom yes) (on_board yes)
    (uuid ff363d43-2e90-46ba-9731-6bdc9520d0e2)
    (property "Reference" "#PWR?" (id 0) (at 354.33 162.56 0)
      (effects (font (size 1.27 1.27)) hide)
    )
    (property "Value" "GND" (id 1) (at 354.33 160.6534 0))
    (property "Footprint" "" (id 2) (at 354.33 156.21 0)
      (effects (font (size 1.27 1.27)) hide)
    )
    (property "Datasheet" "" (id 3) (at 354.33 156.21 0)
      (effects (font (size 1.27 1.27)) hide)
    )
    (pin "1" (uuid 42fed906-a872-4fb8-8819-1933654ea7ea))
  )

  (sheet_instances
    (path "/" (page "1"))
  )

  (symbol_instances
    (path "/12fefc7a-f21a-476e-82ac-997696b2b60a"
      (reference "#FLG?") (unit 1) (value "PWR_FLAG") (footprint "")
    )
    (path "/ccc0be31-3706-443d-9320-09a8ae19d4ec"
      (reference "#FLG?") (unit 1) (value "PWR_FLAG") (footprint "")
    )
    (path "/f159cb97-ff0f-4658-a9cf-0d57e4f5dd3a"
      (reference "#FLG?") (unit 1) (value "PWR_FLAG") (footprint "")
    )
    (path "/0c1daaad-56ac-4ded-b8ac-b53ba0e01dae"
      (reference "#PWR?") (unit 1) (value "GND") (footprint "")
    )
    (path "/24178e12-eca6-4a0b-b570-7be4ad23cd5e"
      (reference "#PWR?") (unit 1) (value "-12V") (footprint "")
    )
    (path "/2e7e5b42-57d2-4d83-9767-17b6692cc787"
      (reference "#PWR?") (unit 1) (value "GND") (footprint "")
    )
    (path "/2f29cb61-2f08-470a-92b6-e224c02c311a"
      (reference "#PWR?") (unit 1) (value "+5V") (footprint "")
    )
    (path "/3ec580b6-a3c6-4221-b954-f1e69a5a3d2e"
      (reference "#PWR?") (unit 1) (value "GND") (footprint "")
    )
    (path "/4a33416e-c87e-4f29-a247-2ef2dbdeb72d"
      (reference "#PWR?") (unit 1) (value "GND") (footprint "")
    )
    (path "/63d63a1c-acef-4b80-af76-d96defabe790"
      (reference "#PWR?") (unit 1) (value "+12V") (footprint "")
    )
    (path "/bd631d25-c4d3-4dfd-857d-5758a7c83797"
      (reference "#PWR?") (unit 1) (value "+12V") (footprint "")
    )
    (path "/ff363d43-2e90-46ba-9731-6bdc9520d0e2"
      (reference "#PWR?") (unit 1) (value "GND") (footprint "")
    )
    (path "/411c2d8d-d70e-4860-bc81-14efdaa58545"
      (reference "C?") (unit 1) (value "100nF") (footprint "")
    )
    (path "/6297a34e-2142-47b5-96e6-3b430d175643"
      (reference "C?") (unit 1) (value "10u 25V") (footprint "Capacitor_THT:CP_Radial_D5.0mm_P2.50mm")
    )
    (path "/776a83e0-3661-4197-befd-ad7c25053865"
      (reference "C?") (unit 1) (value "100nF") (footprint "")
    )
    (path "/80f039e6-e4ae-469e-a2ab-8cc3297f3633"
      (reference "C?") (unit 1) (value "47uF") (footprint "")
    )
    (path "/896e6cdd-dc70-4262-993b-717b1181e712"
      (reference "C?") (unit 1) (value "100nF") (footprint "")
    )
    (path "/8d12255b-de01-4911-a09d-3426f53e2547"
      (reference "C?") (unit 1) (value "100nF") (footprint "")
    )
    (path "/fad2bced-3f32-4e67-8585-be082cd4b1ff"
      (reference "C?") (unit 1) (value "10u 25V") (footprint "Capacitor_THT:CP_Radial_D5.0mm_P2.50mm")
    )
    (path "/16bf06c4-62ab-41c6-9635-cd63d644f177"
      (reference "D?") (unit 1) (value "1N5817") (footprint "Diode_THT:D_DO-35_SOD27_P7.62mm_Horizontal")
    )
    (path "/203f4ce3-c884-42de-9cdb-aced29342910"
      (reference "D?") (unit 1) (value "LED") (footprint "")
    )
    (path "/f5d05359-e255-40fa-90f7-06d601cece59"
      (reference "D?") (unit 1) (value "1N5817") (footprint "Diode_THT:D_DO-35_SOD27_P7.62mm_Horizontal")
    )
    (path "/3ea021e0-9870-4903-b319-7801e919c8e3"
      (reference "J?") (unit 1) (value "Power") (footprint "kicad_footprints:Eurorack_16_pin_power")
    )
    (path "/108323e4-8825-4d8f-a060-d03d5dcc7754"
      (reference "R?") (unit 1) (value "560") (footprint "Resistor_THT:R_Axial_DIN0204_L3.6mm_D1.6mm_P2.54mm_Vertical")
    )
    (path "/c844f398-3dfb-4064-bad4-4e0230522b8d"
      (reference "R?") (unit 1) (value "R") (footprint "")
    )
    (path "/5210ff92-523d-4e91-a1a3-aa3a7fae1c73"
      (reference "U?") (unit 1) (value "PT2399") (footprint "")
    )
  )
)
